{
    "extension_description": {
        "message": "Tarayıcının Kullanıcı-Aracısı satırını kolayca etkisiz kılın"
    },
    "options_entries_caption": {
        "message": "Kullanıcı-Aracısı girdileri"
    },
    "popup_item_options": {
        "message": "Tercihler…"
    },
    "icon_title_enabled": {
        "message": "Etkin"
    },
    "icon_title_disabled": {
        "message": "Devre Dışı"
    },
    "options_entries_reset": {
        "message": "Varsayılan değerlere sıfırla",
        "description": "Options page link for loading the entries defaults"
    },
    "options_entries_reset_undo_text": {
        "message": "Varsayılan değerler geri yüklendi",
        "description": "Text of popup that is shown after the reset link has been clicked"
    },
    "options_entries_reset_undo_button": {
        "message": "Sıfırlamayı geri al",
        "description": "Label of button for undoing a reset (displayed below the text that asserts that the options have just been reset)"
    },
    "options_entries_switch_text": {
        "message": "Metin Kipine Geç",
        "description": "Options page link for switching from table to text mode"
    },
    "options_entries_switch_table": {
        "message": "Tablo Kipine Geç",
        "description": "Options page link for switching from text to table mode"
    },
    "options_entries_heading_label": {
        "message": "Etiket",
        "description": "Options page table editor heading for the column with user-facing User-Agent-String labels"
    },
    "options_entries_heading_category": {
        "message": "Kategori",
        "description": "Options page table editor heading for the column with general category of the given User-Agent-String"
    },
    "options_entries_heading_string": {
        "message": "Satır",
        "description": "Options page table editor heading for the column with the actual server-reported User-Agent-Strings"
    },
    "useragent_category_desktop": {
        "message": "Masaüstü",
        "description": "Default category label for browsers on desktop devices"
    },
    "useragent_category_mobile": {
        "message": "Mobil",
        "description": "Default category label for browsers on mobile devices"
    },
    "useragent_category_bot": {
        "message": "Bot",
        "description": "Default category label for search engine bots"
    },
    "useragent_category_other": {
        "message": "Diğer",
        "description": "Default category label for unclassified client software"
    },
    "icon_title_random": {
        "message": "Rastgele Kipi",
        "description": "Text displayed in the browser action icon tooltip when the User-Agent header is choosen at random"
    },
    "popup_item_random": {
        "message": "Rastgele Kipini Etkinleştir",
        "description": "The label of the menu item for enabling time-based User-Agent randomization"
    },
    "popup_item_random_categories": {
        "message": "Kategoriler:",
        "description": "The section header of the categories selection of random selection mode"
    },
    "popup_item_random_interval_mode_restart": {
        "message": "Sadece açılışta",
        "description": "The label of the menu item for enabling the time-based User-Agent randomization only on extension and browser startup"
    },
    "popup_item_random_interval_mode_timed": {
        "message": "Her:",
        "description": "The label of the menu item for enabling the time-based User-Agent randomization at regular intervals"
    },
    "popup_item_random_interval_unit_minutes": {
        "message": "Dakika",
        "description": "A User-Agent randomization time interval"
    },
    "popup_item_random_interval_unit_hours": {
        "message": "Saat",
        "description": "A User-Agent randomization time interval"
    },
    "popup_item_random_interval_unit_days": {
        "message": "Gün",
        "description": "A User-Agent randomization time interval"
    },
    "popup_item_default": {
        "message": "Varsayılan",
        "description": "The label of the menu item that disables the User-Agent-Overrider and lets the browser send its default User-Agent-String"
    }
}
