{
	"extension_description": {
		"message":     "На једноставан начин премостите опис корисничког агента"
	},
	
	"options_entries_caption": {
		"message":     "Описи корисничких агената"
	},
	
	"options_entries_reset": {
		"message":     "Врати на подразумеване вредности"
	},
	
	"options_entries_reset_undo_text": {
		"message":     "Подразумеване вредности враћене"
	},
	
	"options_entries_reset_undo_button": {
		"message":     "Опозови враћање"
	},
	
	"options_entries_switch_text": {
		"message":     "Пребаци се на текстуални режим"
	},
	
	"options_entries_switch_table": {
		"message":     "Пребаци се на режим табеле"
	},
	
	"options_entries_heading_label": {
		"message":     "Етикета"
	},
	
	"options_entries_heading_string": {
		"message":     "Реченица"
	},
	
	"icon_title_enabled": {
		"message":     "Омогућено"
	},
	
	"icon_title_disabled": {
		"message":     "Онемогућено"
	},
	
	"popup_item_options": {
		"message":     "Поставке…"
	},
	
	"popup_item_default": {
		"message":     "Подразумевано"
	}
}
